{
    "swagger": "2.0",
    "info": {
        "contact": {}
    },
    "paths": {
        "/car": {
            "get": {
                "description": "Get Car s List",
                "consumes": [
                    "application/json"
                ],
                "produces": [
                    "application/json"
                ],
                "tags": [
                    "Car"
                ],
                "summary": "Get Car s List",
                "operationId": "get_car",
                "parameters": [
                    {
                        "type": "integer",
                        "description": "offset",
                        "name": "offset",
                        "in": "query"
                    },
                    {
                        "type": "integer",
                        "description": "limit",
                        "name": "limit",
                        "in": "query"
                    },
                    {
                        "type": "string",
                        "description": "searchbrand",
                        "name": "searchBrand",
                        "in": "query"
                    },
                    {
                        "type": "string",
                        "description": "searchModel",
                        "name": "searchModel",
                        "in": "query"
                    },
                    {
                        "type": "string",
                        "description": "searchStateNumber",
                        "name": "searchStateNumber",
                        "in": "query"
                    },
                    {
                        "type": "string",
                        "description": "searchInvestor",
                        "name": "searchInvestor",
                        "in": "query"
                    },
                    {
                        "type": "string",
                        "default": "a1924766-a9ee-11ed-afa1-0242ac120001",
                        "description": "Platform-Id",
                        "name": "Platform-Id",
                        "in": "header",
                        "required": true
                    }
                ],
                "responses": {
                    "200": {
                        "description": "GetAllCarResponseBody",
                        "schema": {
                            "allOf": [
                                {
                                    "$ref": "#/definitions/http.Response"
                                },
                                {
                                    "type": "object",
                                    "properties": {
                                        "data": {
                                            "$ref": "#/definitions/car_service.GetListCarResponse"
                                        }
                                    }
                                }
                            ]
                        }
                    },
                    "400": {
                        "description": "Invalid Argument",
                        "schema": {
                            "allOf": [
                                {
                                    "$ref": "#/definitions/http.Response"
                                },
                                {
                                    "type": "object",
                                    "properties": {
                                        "data": {
                                            "type": "string"
                                        }
                                    }
                                }
                            ]
                        }
                    },
                    "500": {
                        "description": "Server Error",
                        "schema": {
                            "allOf": [
                                {
                                    "$ref": "#/definitions/http.Response"
                                },
                                {
                                    "type": "object",
                                    "properties": {
                                        "data": {
                                            "type": "string"
                                        }
                                    }
                                }
                            ]
                        }
                    }
                }
            },
            "post": {
                "description": "Create Car",
                "consumes": [
                    "application/json"
                ],
                "produces": [
                    "application/json"
                ],
                "tags": [
                    "Car"
                ],
                "summary": "Create Car",
                "operationId": "create_car",
                "parameters": [
                    {
                        "type": "string",
                        "default": "a1924766-a9ee-11ed-afa1-0242ac120001",
                        "description": "Platform-Id",
                        "name": "Platform-Id",
                        "in": "header",
                        "required": true
                    },
                    {
                        "description": "CreateCarRequestBody",
                        "name": "profile",
                        "in": "body",
                        "required": true,
                        "schema": {
                            "$ref": "#/definitions/car_service.CreateCar"
                        }
                    }
                ],
                "responses": {
                    "200": {
                        "description": "GetCarBody",
                        "schema": {
                            "allOf": [
                                {
                                    "$ref": "#/definitions/http.Response"
                                },
                                {
                                    "type": "object",
                                    "properties": {
                                        "data": {
                                            "$ref": "#/definitions/car_service.Car"
                                        }
                                    }
                                }
                            ]
                        }
                    },
                    "400": {
                        "description": "Invalid Argument",
                        "schema": {
                            "allOf": [
                                {
                                    "$ref": "#/definitions/http.Response"
                                },
                                {
                                    "type": "object",
                                    "properties": {
                                        "data": {
                                            "type": "string"
                                        }
                                    }
                                }
                            ]
                        }
                    },
                    "500": {
                        "description": "Server Error",
                        "schema": {
                            "allOf": [
                                {
                                    "$ref": "#/definitions/http.Response"
                                },
                                {
                                    "type": "object",
                                    "properties": {
                                        "data": {
                                            "type": "string"
                                        }
                                    }
                                }
                            ]
                        }
                    }
                }
            }
        },
        "/car/{id}": {
            "get": {
                "description": "Get Car By ID",
                "consumes": [
                    "application/json"
                ],
                "produces": [
                    "application/json"
                ],
                "tags": [
                    "Car"
                ],
                "summary": "Get Car By ID",
                "operationId": "get_car_by_id",
                "parameters": [
                    {
                        "type": "string",
                        "description": "id",
                        "name": "id",
                        "in": "path",
                        "required": true
                    }
                ],
                "responses": {
                    "200": {
                        "description": "InvestorBody",
                        "schema": {
                            "allOf": [
                                {
                                    "$ref": "#/definitions/http.Response"
                                },
                                {
                                    "type": "object",
                                    "properties": {
                                        "data": {
                                            "$ref": "#/definitions/car_service.Car"
                                        }
                                    }
                                }
                            ]
                        }
                    },
                    "400": {
                        "description": "Invalid Argument",
                        "schema": {
                            "allOf": [
                                {
                                    "$ref": "#/definitions/http.Response"
                                },
                                {
                                    "type": "object",
                                    "properties": {
                                        "data": {
                                            "type": "string"
                                        }
                                    }
                                }
                            ]
                        }
                    },
                    "500": {
                        "description": "Server Error",
                        "schema": {
                            "allOf": [
                                {
                                    "$ref": "#/definitions/http.Response"
                                },
                                {
                                    "type": "object",
                                    "properties": {
                                        "data": {
                                            "type": "string"
                                        }
                                    }
                                }
                            ]
                        }
                    }
                }
            },
            "put": {
                "description": "Update Car",
                "consumes": [
                    "application/json"
                ],
                "produces": [
                    "application/json"
                ],
                "tags": [
                    "Car"
                ],
                "summary": "Update Car",
                "operationId": "update_car",
                "parameters": [
                    {
                        "type": "string",
                        "description": "id",
                        "name": "id",
                        "in": "path",
                        "required": true
                    },
                    {
                        "description": "UpdateCarRequestBody",
                        "name": "profile",
                        "in": "body",
                        "required": true,
                        "schema": {
                            "$ref": "#/definitions/car_service.UpdateCar"
                        }
                    }
                ],
                "responses": {
                    "200": {
                        "description": "Car data",
                        "schema": {
                            "allOf": [
                                {
                                    "$ref": "#/definitions/http.Response"
                                },
                                {
                                    "type": "object",
                                    "properties": {
                                        "data": {
                                            "$ref": "#/definitions/car_service.Car"
                                        }
                                    }
                                }
                            ]
                        }
                    },
                    "400": {
                        "description": "Bad Request",
                        "schema": {
                            "allOf": [
                                {
                                    "$ref": "#/definitions/http.Response"
                                },
                                {
                                    "type": "object",
                                    "properties": {
                                        "data": {
                                            "type": "string"
                                        }
                                    }
                                }
                            ]
                        }
                    },
                    "500": {
                        "description": "Server Error",
                        "schema": {
                            "allOf": [
                                {
                                    "$ref": "#/definitions/http.Response"
                                },
                                {
                                    "type": "object",
                                    "properties": {
                                        "data": {
                                            "type": "string"
                                        }
                                    }
                                }
                            ]
                        }
                    }
                }
            },
            "delete": {
                "description": "Delete Car",
                "consumes": [
                    "application/json"
                ],
                "produces": [
                    "application/json"
                ],
                "tags": [
                    "Car"
                ],
                "summary": "Delete Car",
                "operationId": "delete_car",
                "parameters": [
                    {
                        "type": "string",
                        "description": "id",
                        "name": "id",
                        "in": "path",
                        "required": true
                    }
                ],
                "responses": {
                    "200": {
                        "description": "Car data",
                        "schema": {
                            "allOf": [
                                {
                                    "$ref": "#/definitions/http.Response"
                                },
                                {
                                    "type": "object",
                                    "properties": {
                                        "data": {
                                            "type": "object"
                                        }
                                    }
                                }
                            ]
                        }
                    },
                    "400": {
                        "description": "Bad Request",
                        "schema": {
                            "allOf": [
                                {
                                    "$ref": "#/definitions/http.Response"
                                },
                                {
                                    "type": "object",
                                    "properties": {
                                        "data": {
                                            "type": "string"
                                        }
                                    }
                                }
                            ]
                        }
                    },
                    "500": {
                        "description": "Server Error",
                        "schema": {
                            "allOf": [
                                {
                                    "$ref": "#/definitions/http.Response"
                                },
                                {
                                    "type": "object",
                                    "properties": {
                                        "data": {
                                            "type": "string"
                                        }
                                    }
                                }
                            ]
                        }
                    }
                }
            }
        },
        "/investor": {
            "get": {
                "description": "Get Investor s List",
                "consumes": [
                    "application/json"
                ],
                "produces": [
                    "application/json"
                ],
                "tags": [
                    "Investor"
                ],
                "summary": "Get Investor s List",
                "operationId": "get_investor_list",
                "parameters": [
                    {
                        "type": "integer",
                        "description": "offset",
                        "name": "offset",
                        "in": "query"
                    },
                    {
                        "type": "integer",
                        "description": "limit",
                        "name": "limit",
                        "in": "query"
                    },
                    {
                        "type": "string",
                        "description": "searchName",
                        "name": "searchName",
                        "in": "query"
                    },
                    {
                        "type": "string",
                        "description": "searchPhone",
                        "name": "searchPhone",
                        "in": "query"
                    },
                    {
                        "type": "string",
                        "default": "a1924766-a9ee-11ed-afa1-0242ac120001",
                        "description": "Platform-Id",
                        "name": "Platform-Id",
                        "in": "header",
                        "required": true
                    }
                ],
                "responses": {
                    "200": {
                        "description": "GetAllInvestorResponseBody",
                        "schema": {
                            "allOf": [
                                {
                                    "$ref": "#/definitions/http.Response"
                                },
                                {
                                    "type": "object",
                                    "properties": {
                                        "data": {
                                            "$ref": "#/definitions/user_service.GetListInvestorResponse"
                                        }
                                    }
                                }
                            ]
                        }
                    },
                    "400": {
                        "description": "Invalid Argument",
                        "schema": {
                            "allOf": [
                                {
                                    "$ref": "#/definitions/http.Response"
                                },
                                {
                                    "type": "object",
                                    "properties": {
                                        "data": {
                                            "type": "string"
                                        }
                                    }
                                }
                            ]
                        }
                    },
                    "500": {
                        "description": "Server Error",
                        "schema": {
                            "allOf": [
                                {
                                    "$ref": "#/definitions/http.Response"
                                },
                                {
                                    "type": "object",
                                    "properties": {
                                        "data": {
                                            "type": "string"
                                        }
                                    }
                                }
                            ]
                        }
                    }
                }
            },
            "post": {
                "description": "Create Investor",
                "consumes": [
                    "application/json"
                ],
                "produces": [
                    "application/json"
                ],
                "tags": [
                    "Investor"
                ],
                "summary": "Create Investor",
                "operationId": "create_investor",
                "parameters": [
                    {
                        "type": "string",
                        "default": "a1924766-a9ee-11ed-afa1-0242ac120001",
                        "description": "Platform-Id",
                        "name": "Platform-Id",
                        "in": "header",
                        "required": true
                    },
                    {
                        "description": "CreateInvestorRequestBody",
                        "name": "profile",
                        "in": "body",
                        "required": true,
                        "schema": {
                            "$ref": "#/definitions/user_service.CreateInvestor"
                        }
                    }
                ],
                "responses": {
                    "200": {
                        "description": "GetInvestorBody",
                        "schema": {
                            "allOf": [
                                {
                                    "$ref": "#/definitions/http.Response"
                                },
                                {
                                    "type": "object",
                                    "properties": {
                                        "data": {
                                            "$ref": "#/definitions/user_service.Investor"
                                        }
                                    }
                                }
                            ]
                        }
                    },
                    "400": {
                        "description": "Invalid Argument",
                        "schema": {
                            "allOf": [
                                {
                                    "$ref": "#/definitions/http.Response"
                                },
                                {
                                    "type": "object",
                                    "properties": {
                                        "data": {
                                            "type": "string"
                                        }
                                    }
                                }
                            ]
                        }
                    },
                    "500": {
                        "description": "Server Error",
                        "schema": {
                            "allOf": [
                                {
                                    "$ref": "#/definitions/http.Response"
                                },
                                {
                                    "type": "object",
                                    "properties": {
                                        "data": {
                                            "type": "string"
                                        }
                                    }
                                }
                            ]
                        }
                    }
                }
            }
        },
        "/investor/{id}": {
            "get": {
                "description": "Get Investor By ID",
                "consumes": [
                    "application/json"
                ],
                "produces": [
                    "application/json"
                ],
                "tags": [
                    "Investor"
                ],
                "summary": "Get Investor By ID",
                "operationId": "get_investor_by_id",
                "parameters": [
                    {
                        "type": "string",
                        "description": "id",
                        "name": "id",
                        "in": "path",
                        "required": true
                    }
                ],
                "responses": {
                    "200": {
                        "description": "InvestorBody",
                        "schema": {
                            "allOf": [
                                {
                                    "$ref": "#/definitions/http.Response"
                                },
                                {
                                    "type": "object",
                                    "properties": {
                                        "data": {
                                            "$ref": "#/definitions/user_service.Investor"
                                        }
                                    }
                                }
                            ]
                        }
                    },
                    "400": {
                        "description": "Invalid Argument",
                        "schema": {
                            "allOf": [
                                {
                                    "$ref": "#/definitions/http.Response"
                                },
                                {
                                    "type": "object",
                                    "properties": {
                                        "data": {
                                            "type": "string"
                                        }
                                    }
                                }
                            ]
                        }
                    },
                    "500": {
                        "description": "Server Error",
                        "schema": {
                            "allOf": [
                                {
                                    "$ref": "#/definitions/http.Response"
                                },
                                {
                                    "type": "object",
                                    "properties": {
                                        "data": {
                                            "type": "string"
                                        }
                                    }
                                }
                            ]
                        }
                    }
                }
            },
            "put": {
                "description": "Update Investor",
                "consumes": [
                    "application/json"
                ],
                "produces": [
                    "application/json"
                ],
                "tags": [
                    "Investor"
                ],
                "summary": "Update Investor",
                "operationId": "update_investor",
                "parameters": [
                    {
                        "type": "string",
                        "description": "id",
                        "name": "id",
                        "in": "path",
                        "required": true
                    },
                    {
                        "description": "UpdateInvestorRequestBody",
                        "name": "profile",
                        "in": "body",
                        "required": true,
                        "schema": {
                            "$ref": "#/definitions/user_service.UpdateInvestor"
                        }
                    }
                ],
                "responses": {
                    "200": {
                        "description": "Investor data",
                        "schema": {
                            "allOf": [
                                {
                                    "$ref": "#/definitions/http.Response"
                                },
                                {
                                    "type": "object",
                                    "properties": {
                                        "data": {
                                            "$ref": "#/definitions/user_service.Investor"
                                        }
                                    }
                                }
                            ]
                        }
                    },
                    "400": {
                        "description": "Bad Request",
                        "schema": {
                            "allOf": [
                                {
                                    "$ref": "#/definitions/http.Response"
                                },
                                {
                                    "type": "object",
                                    "properties": {
                                        "data": {
                                            "type": "string"
                                        }
                                    }
                                }
                            ]
                        }
                    },
                    "500": {
                        "description": "Server Error",
                        "schema": {
                            "allOf": [
                                {
                                    "$ref": "#/definitions/http.Response"
                                },
                                {
                                    "type": "object",
                                    "properties": {
                                        "data": {
                                            "type": "string"
                                        }
                                    }
                                }
                            ]
                        }
                    }
                }
            }
        },
        "/order": {
            "get": {
                "description": "Get Order s List",
                "consumes": [
                    "application/json"
                ],
                "produces": [
                    "application/json"
                ],
                "tags": [
                    "Order"
                ],
                "summary": "Get Order s List",
                "operationId": "get_order_list",
                "parameters": [
                    {
                        "type": "integer",
                        "description": "offset",
                        "name": "offset",
                        "in": "query"
                    },
                    {
                        "type": "integer",
                        "description": "limit",
                        "name": "limit",
                        "in": "query"
                    },
                    {
                        "type": "string",
                        "description": "searchTarif",
                        "name": "searchTarif",
                        "in": "query"
                    },
                    {
                        "type": "string",
                        "description": "searchDate",
                        "name": "searchDate",
                        "in": "query"
                    },
                    {
                        "type": "string",
                        "description": "searchOrderNumber",
                        "name": "searchOrderNumber",
                        "in": "query"
                    },
                    {
                        "type": "string",
                        "default": "a1924766-a9ee-11ed-afa1-0242ac120001",
                        "description": "Platform-Id",
                        "name": "Platform-Id",
                        "in": "header",
                        "required": true
                    }
                ],
                "responses": {
                    "200": {
                        "description": "GetAllOrderResponseBody",
                        "schema": {
                            "allOf": [
                                {
                                    "$ref": "#/definitions/http.Response"
                                },
                                {
                                    "type": "object",
                                    "properties": {
                                        "data": {
                                            "$ref": "#/definitions/order_service.GetListOrderResponse"
                                        }
                                    }
                                }
                            ]
                        }
                    },
                    "400": {
                        "description": "Invalid Argument",
                        "schema": {
                            "allOf": [
                                {
                                    "$ref": "#/definitions/http.Response"
                                },
                                {
                                    "type": "object",
                                    "properties": {
                                        "data": {
                                            "type": "string"
                                        }
                                    }
                                }
                            ]
                        }
                    },
                    "500": {
                        "description": "Server Error",
                        "schema": {
                            "allOf": [
                                {
                                    "$ref": "#/definitions/http.Response"
                                },
                                {
                                    "type": "object",
                                    "properties": {
                                        "data": {
                                            "type": "string"
                                        }
                                    }
                                }
                            ]
                        }
                    }
                }
            },
            "post": {
                "description": "Create Order",
                "consumes": [
                    "application/json"
                ],
                "produces": [
                    "application/json"
                ],
                "tags": [
                    "Order"
                ],
                "summary": "Create Order",
                "operationId": "create_order",
                "parameters": [
                    {
                        "type": "string",
                        "default": "a1924766-a9ee-11ed-afa1-0242ac120001",
                        "description": "Platform-Id",
                        "name": "Platform-Id",
                        "in": "header",
                        "required": true
                    },
                    {
                        "description": "CreateOrderRequestBody",
                        "name": "profile",
                        "in": "body",
                        "required": true,
                        "schema": {
                            "$ref": "#/definitions/order_service.CreateOrder"
                        }
                    }
                ],
                "responses": {
                    "200": {
                        "description": "GetOrderBody",
                        "schema": {
                            "allOf": [
                                {
                                    "$ref": "#/definitions/http.Response"
                                },
                                {
                                    "type": "object",
                                    "properties": {
                                        "data": {
                                            "$ref": "#/definitions/order_service.Order"
                                        }
                                    }
                                }
                            ]
                        }
                    },
                    "400": {
                        "description": "Invalid Argument",
                        "schema": {
                            "allOf": [
                                {
                                    "$ref": "#/definitions/http.Response"
                                },
                                {
                                    "type": "object",
                                    "properties": {
                                        "data": {
                                            "type": "string"
                                        }
                                    }
                                }
                            ]
                        }
                    },
                    "500": {
                        "description": "Server Error",
                        "schema": {
                            "allOf": [
                                {
                                    "$ref": "#/definitions/http.Response"
                                },
                                {
                                    "type": "object",
                                    "properties": {
                                        "data": {
                                            "type": "string"
                                        }
                                    }
                                }
                            ]
                        }
                    }
                }
            }
        },
        "/order/{id}": {
            "get": {
                "description": "Get Order By ID",
                "consumes": [
                    "application/json"
                ],
                "produces": [
                    "application/json"
                ],
                "tags": [
                    "Order"
                ],
                "summary": "Get Order By ID",
                "operationId": "get_order_by_id",
                "parameters": [
                    {
                        "type": "string",
                        "description": "id",
                        "name": "id",
                        "in": "path",
                        "required": true
                    }
                ],
                "responses": {
                    "200": {
                        "description": "OrderBody",
                        "schema": {
                            "allOf": [
                                {
                                    "$ref": "#/definitions/http.Response"
                                },
                                {
                                    "type": "object",
                                    "properties": {
                                        "data": {
                                            "$ref": "#/definitions/order_service.Order"
                                        }
                                    }
                                }
                            ]
                        }
                    },
                    "400": {
                        "description": "Invalid Argument",
                        "schema": {
                            "allOf": [
                                {
                                    "$ref": "#/definitions/http.Response"
                                },
                                {
                                    "type": "object",
                                    "properties": {
                                        "data": {
                                            "type": "string"
                                        }
                                    }
                                }
                            ]
                        }
                    },
                    "500": {
                        "description": "Server Error",
                        "schema": {
                            "allOf": [
                                {
                                    "$ref": "#/definitions/http.Response"
                                },
                                {
                                    "type": "object",
                                    "properties": {
                                        "data": {
                                            "type": "string"
                                        }
                                    }
                                }
                            ]
                        }
                    }
                }
            },
            "put": {
                "description": "Update Order",
                "consumes": [
                    "application/json"
                ],
                "produces": [
                    "application/json"
                ],
                "tags": [
                    "Order"
                ],
                "summary": "Update Order",
                "operationId": "update_order",
                "parameters": [
                    {
                        "type": "string",
                        "description": "id",
                        "name": "id",
                        "in": "path",
                        "required": true
                    },
                    {
                        "description": "UpdateOrderRequestBody",
                        "name": "profile",
                        "in": "body",
                        "required": true,
                        "schema": {
                            "$ref": "#/definitions/order_service.UpdateOrder"
                        }
                    }
                ],
                "responses": {
                    "200": {
                        "description": "Order data",
                        "schema": {
                            "allOf": [
                                {
                                    "$ref": "#/definitions/http.Response"
                                },
                                {
                                    "type": "object",
                                    "properties": {
                                        "data": {
                                            "$ref": "#/definitions/order_service.Order"
                                        }
                                    }
                                }
                            ]
                        }
                    },
                    "400": {
                        "description": "Bad Request",
                        "schema": {
                            "allOf": [
                                {
                                    "$ref": "#/definitions/http.Response"
                                },
                                {
                                    "type": "object",
                                    "properties": {
                                        "data": {
                                            "type": "string"
                                        }
                                    }
                                }
                            ]
                        }
                    },
                    "500": {
                        "description": "Server Error",
                        "schema": {
                            "allOf": [
                                {
                                    "$ref": "#/definitions/http.Response"
                                },
                                {
                                    "type": "object",
                                    "properties": {
                                        "data": {
                                            "type": "string"
                                        }
                                    }
                                }
                            ]
                        }
                    }
                }
            },
            "delete": {
                "description": "Delete Order",
                "consumes": [
                    "application/json"
                ],
                "produces": [
                    "application/json"
                ],
                "tags": [
                    "Order"
                ],
                "summary": "Delete Order",
                "operationId": "delete_order",
                "parameters": [
                    {
                        "type": "string",
                        "description": "id",
                        "name": "id",
                        "in": "path",
                        "required": true
                    }
                ],
                "responses": {
                    "200": {
                        "description": "Order data",
                        "schema": {
                            "allOf": [
                                {
                                    "$ref": "#/definitions/http.Response"
                                },
                                {
                                    "type": "object",
                                    "properties": {
                                        "data": {
                                            "type": "object"
                                        }
                                    }
                                }
                            ]
                        }
                    },
                    "400": {
                        "description": "Bad Request",
                        "schema": {
                            "allOf": [
                                {
                                    "$ref": "#/definitions/http.Response"
                                },
                                {
                                    "type": "object",
                                    "properties": {
                                        "data": {
                                            "type": "string"
                                        }
                                    }
                                }
                            ]
                        }
                    },
                    "500": {
                        "description": "Server Error",
                        "schema": {
                            "allOf": [
                                {
                                    "$ref": "#/definitions/http.Response"
                                },
                                {
                                    "type": "object",
                                    "properties": {
                                        "data": {
                                            "type": "string"
                                        }
                                    }
                                }
                            ]
                        }
                    }
                }
            }
        },
        "/user/{id}": {
            "delete": {
                "description": "Delete User",
                "consumes": [
                    "application/json"
                ],
                "produces": [
                    "application/json"
                ],
                "tags": [
                    "User"
                ],
                "summary": "Delete User",
                "operationId": "delete_user",
                "parameters": [
                    {
                        "type": "string",
                        "description": "id",
                        "name": "id",
                        "in": "path",
                        "required": true
                    }
                ],
                "responses": {
                    "200": {
                        "description": "Investor data",
                        "schema": {
                            "allOf": [
                                {
                                    "$ref": "#/definitions/http.Response"
                                },
                                {
                                    "type": "object",
                                    "properties": {
                                        "data": {
                                            "type": "object"
                                        }
                                    }
                                }
                            ]
                        }
                    },
                    "400": {
                        "description": "Bad Request",
                        "schema": {
                            "allOf": [
                                {
                                    "$ref": "#/definitions/http.Response"
                                },
                                {
                                    "type": "object",
                                    "properties": {
                                        "data": {
                                            "type": "string"
                                        }
                                    }
                                }
                            ]
                        }
                    },
                    "500": {
                        "description": "Server Error",
                        "schema": {
                            "allOf": [
                                {
                                    "$ref": "#/definitions/http.Response"
                                },
                                {
                                    "type": "object",
                                    "properties": {
                                        "data": {
                                            "type": "string"
                                        }
                                    }
                                }
                            ]
                        }
                    }
                }
            }
        }
    },
    "definitions": {
        "car_service.Car": {
            "type": "object",
            "properties": {
                "brand_id": {
                    "type": "string"
                },
                "created_at": {
                    "type": "string"
                },
                "id": {
                    "type": "string"
                },
                "investor_id": {
                    "type": "string"
                },
                "milleage": {
                    "type": "integer"
                },
                "model_id": {
                    "type": "string"
                },
                "state_number": {
                    "type": "string"
                },
                "status": {
                    "type": "string"
                },
                "updated_at": {
                    "type": "string"
                }
            }
        },
        "car_service.CreateCar": {
            "type": "object",
            "properties": {
                "brand_id": {
                    "type": "string"
                },
                "investor_id": {
                    "type": "string"
                },
                "milleage": {
                    "type": "integer"
                },
                "model_id": {
                    "type": "string"
                },
                "state_number": {
                    "type": "string"
                }
            }
        },
        "car_service.GetListCarResponse": {
            "type": "object",
            "properties": {
                "cars": {
                    "type": "array",
                    "items": {
                        "$ref": "#/definitions/car_service.Car"
                    }
                },
                "count": {
                    "type": "integer"
                }
            }
        },
        "car_service.UpdateCar": {
            "type": "object",
            "properties": {
                "brand_id": {
                    "type": "string"
                },
                "id": {
                    "type": "string"
                },
                "investor_id": {
                    "type": "string"
                },
                "milleage": {
                    "type": "integer"
                },
                "model_id": {
                    "type": "string"
                },
                "state_number": {
                    "type": "string"
                },
                "status": {
                    "type": "string"
                }
            }
        },
        "http.Response": {
            "type": "object",
            "properties": {
                "data": {},
                "description": {
                    "type": "string"
                },
                "status": {
                    "type": "string"
                }
            }
        },
        "order_service.CreateOrder": {
            "type": "object",
            "properties": {
                "branch_id": {
                    "type": "string"
                },
                "car_id": {
                    "type": "string"
                },
                "client_id": {
                    "type": "string"
                },
                "date": {
                    "type": "string"
                },
                "discount": {
                    "type": "integer"
                },
                "duration": {
                    "type": "integer"
                },
                "extend": {
                    "type": "boolean"
                },
                "insurance": {
                    "type": "integer"
                },
                "order_number": {
                    "type": "string"
                },
                "payd": {
                    "type": "boolean"
                },
                "status": {
                    "type": "string"
                },
                "tarif_id": {
                    "type": "string"
                }
            }
        },
        "order_service.GetListOrderResponse": {
            "type": "object",
            "properties": {
                "count": {
                    "type": "integer"
                },
                "orders": {
                    "type": "array",
                    "items": {
                        "$ref": "#/definitions/order_service.Order"
                    }
                }
            }
        },
        "order_service.Order": {
            "type": "object",
            "properties": {
                "branch_id": {
                    "type": "string"
                },
                "car_id": {
                    "type": "string"
                },
                "client_id": {
                    "type": "string"
                },
                "created_at": {
                    "type": "string"
                },
                "date": {
                    "type": "string"
                },
                "discount": {
                    "type": "integer"
                },
                "duration": {
                    "type": "integer"
                },
                "extend": {
                    "type": "boolean"
                },
                "id": {
                    "type": "string"
                },
                "insurance": {
                    "type": "integer"
                },
                "order_number": {
                    "type": "string"
                },
                "payd": {
                    "type": "boolean"
                },
                "status": {
                    "type": "string"
                },
                "tarif_id": {
                    "type": "string"
                },
                "updated_at": {
                    "type": "string"
                }
            }
        },
        "order_service.UpdateOrder": {
            "type": "object",
            "properties": {
                "branch_id": {
                    "type": "string"
                },
                "car_id": {
                    "type": "string"
                },
                "client_id": {
                    "type": "string"
                },
                "date": {
                    "type": "string"
                },
                "discount": {
                    "type": "integer"
                },
                "duration": {
                    "type": "integer"
                },
                "extend": {
                    "type": "boolean"
                },
                "id": {
                    "type": "string"
                },
                "insurance": {
                    "type": "integer"
                },
                "order_number": {
                    "type": "string"
                },
                "payd": {
                    "type": "boolean"
                },
                "status": {
                    "type": "string"
                },
                "tarif_id": {
                    "type": "string"
                }
            }
        },
        "user_service.CreateInvestor": {
            "type": "object",
            "properties": {
                "balance": {
                    "type": "number"
                },
                "date_of_birth": {
                    "type": "string"
                },
                "first_name": {
                    "type": "string"
                },
                "last_name": {
                    "type": "string"
                },
                "phone_number": {
                    "type": "string"
                }
            }
        },
        "user_service.GetListInvestorResponse": {
            "type": "object",
            "properties": {
                "count": {
                    "type": "integer"
                },
                "users": {
                    "type": "array",
                    "items": {
                        "$ref": "#/definitions/user_service.Investor"
                    }
                }
            }
        },
        "user_service.Investor": {
            "type": "object",
            "properties": {
                "balance": {
                    "type": "number"
                },
                "created_at": {
                    "type": "string"
                },
                "date_of_birth": {
                    "type": "string"
                },
                "first_name": {
                    "type": "string"
                },
                "id": {
                    "type": "string"
                },
                "last_name": {
                    "type": "string"
                },
                "phone_number": {
                    "type": "string"
                },
                "updated_at": {
                    "type": "string"
                }
            }
        },
        "user_service.UpdateInvestor": {
            "type": "object",
            "properties": {
                "balance": {
                    "type": "number"
                },
                "date_of_birth": {
                    "type": "string"
                },
                "first_name": {
                    "type": "string"
                },
                "id": {
                    "type": "string"
                },
                "last_name": {
                    "type": "string"
                },
                "phone_number": {
                    "type": "string"
                }
            }
        }
    }
}